{
    "_red": {
        "r": 0.8339999914169312,
        "g": 0.15942569077014924,
        "b": 0.15345601737499238,
        "a": 1.0
    },
    "_yellow": {
        "r": 0.8676470518112183,
        "g": 0.6150086522102356,
        "b": 0.2360510528087616,
        "a": 1.0
    },
    "_darkBlue": {
        "r": 0.20579400658607484,
        "g": 0.33728158473968508,
        "b": 0.6660000085830689,
        "a": 1.0
    },
    "_green": {
        "r": 0.5408431887626648,
        "g": 0.7210000157356262,
        "b": 0.2458610236644745,
        "a": 1.0
    },
    "_lightBlue": {
        "r": 0.44117647409439089,
        "g": 0.27384084463119509,
        "b": 0.10380621999502182,
        "a": 1.0
    },
    "_magenta": {
        "r": 0.7725490927696228,
        "g": 0.5254902243614197,
        "b": 0.7411764860153198,
        "a": 1.0
    },
    "_wind": {
        "r": 0.1985294222831726,
        "g": 0.11184898018836975,
        "b": 0.045253027230501178,
        "a": 1.0
    },
    "_baseColor": {
        "r": 1.0,
        "g": 1.0,
        "b": 1.0,
        "a": 1.0
    },
    "_rackInactiveTiles": {
        "r": 0.0784313753247261,
        "g": 0.0784313753247261,
        "b": 0.0784313753247261,
        "a": 0.3137255012989044
    },
    "RackTop": {
        "r": 0.3089999854564667,
        "g": 0.23039470613002778,
        "b": 0.22768418490886689,
        "a": 0.8960000276565552
    },
    "RackBottomAdditive": {
        "r": 0.34700000286102297,
        "g": 0.2587280869483948,
        "b": 0.2556842267513275,
        "a": 0.890999972820282
    },
    "BoardTop": {
        "r": 0.25,
        "g": 0.1766544133424759,
        "b": 0.005514711141586304,
        "a": 0.8220000267028809
    },
    "BoardBottomAdditive": {
        "r": 0.8549019694328308,
        "g": 0.4411294162273407,
        "b": 0.4411294162273407,
        "a": 0.5659999847412109
    },
    "PlayerInfoBox": {
        "r": 0.48235297203063967,
        "g": 0.35686275362968447,
        "b": 0.3450980484485626,
        "a": 1.0
    },
    "BoardFrame": {
        "r": 0.44705885648727419,
        "g": 0.3333333432674408,
        "b": 0.3294117748737335,
        "a": 0.734000027179718
    },
    "BoardFrameV2": {
        "r": 0.3235294222831726,
        "g": 0.2315455675125122,
        "b": 0.2283737063407898,
        "a": 0.7333333492279053
    },
    "BoardGrid": {
        "r": 1.0,
        "g": 1.0,
        "b": 1.0,
        "a": 0.6779999732971191
    },
    "ChatButton": {
        "r": 0.48235294222831728,
        "g": 0.35686275362968447,
        "b": 0.3450980484485626,
        "a": 1.0
    },
    "MoonSquare": {
        "r": 0.515999972820282,
        "g": 0.22133097052574159,
        "b": 0.05985599383711815,
        "a": 0.5529999732971191
    },
    "RadialGrad": {
        "r": 0.640999972820282,
        "g": 0.6068269610404968,
        "b": 0.4666479825973511,
        "a": 0.546999990940094
    },
    "FanfareTint": {
        "r": 0.6784313917160034,
        "g": 0.5607843399047852,
        "b": 0.07058823853731156,
        "a": 0.4588235318660736
    },
    "BaseLayersData": [
        {
            "LayerColor": {
                "r": 1.0,
                "g": 1.0,
                "b": 1.0,
                "a": 1.0
            },
            "LayerColorBasedOnIconColor": false,
            "LayerColorIfColor1": {
                "r": 0.0,
                "g": 0.0,
                "b": 0.0,
                "a": 0.0
            },
            "LayerColorIfColor2": {
                "r": 0.0,
                "g": 0.0,
                "b": 0.0,
                "a": 0.0
            },
            "LayerColorIfColor3": {
                "r": 0.0,
                "g": 0.0,
                "b": 0.0,
                "a": 0.0
            },
            "LayerColorIfColor4": {
                "r": 0.0,
                "g": 0.0,
                "b": 0.0,
                "a": 0.0
            },
            "LayerColorIfColor5": {
                "r": 0.0,
                "g": 0.0,
                "b": 0.0,
                "a": 0.0
            },
            "LayerColorIfColor6": {
                "r": 0.0,
                "g": 0.0,
                "b": 0.0,
                "a": 0.0
            },
            "LayerColorIfWind": {
                "r": 0.0,
                "g": 0.0,
                "b": 0.0,
                "a": 0.0
            },
            "RandomBaseRotation": true,
            "RandomBaseXMirror": true,
            "RandomBaseYMirror": true,
            "CopyBaseRotation": false,
            "CopyRotationFromLayer": 0,
            "CopyBaseXMirror": false,
            "CopyXMirrorFromLayer": 0,
            "CopyBaseYMirror": false,
            "CopyYMirrorFromLayer": 0,
            "DefaultLayerVariations": [
                "BaseLayer0_0",
                "BaseLayer0_1",
                "BaseLayer0_2",
                "BaseLayer0_3"
            ],
            "LayerSpriteBasedOnShape": false,
            "Shape1Variations": [],
            "Shape2Variations": [],
            "Shape3Variations": [],
            "Shape4Variations": [],
            "Shape5Variations": [],
            "Shape6Variations": [],
            "ShapeWindVariations": [],
            "LayerSpriteBasedOnColor": false,
            "Color1Variations": [],
            "Color2Variations": [],
            "Color3Variations": [],
            "Color4Variations": [],
            "Color5Variations": [],
            "Color6Variations": [],
            "ColorWindVariations": []
        }
    ],
    "IconLayersData": []
}