{
    "_red": {
        "r": 1.0,
        "g": 1.0,
        "b": 1.0,
        "a": 1.0
    },
    "_yellow": {
        "r": 1.0,
        "g": 1.0,
        "b": 1.0,
        "a": 1.0
    },
    "_darkBlue": {
        "r": 1.0,
        "g": 1.0,
        "b": 1.0,
        "a": 1.0
    },
    "_green": {
        "r": 1.0,
        "g": 1.0,
        "b": 1.0,
        "a": 1.0
    },
    "_lightBlue": {
        "r": 1.0,
        "g": 1.0,
        "b": 1.0,
        "a": 1.0
    },
    "_magenta": {
        "r": 1.0,
        "g": 1.0,
        "b": 1.0,
        "a": 1.0
    },
    "_wind": {
        "r": 0.0,
        "g": 0.0,
        "b": 0.0,
        "a": 1.0
    },
    "_baseColor": {
        "r": 1.0,
        "g": 1.0,
        "b": 1.0,
        "a": 1.0
    },
    "_rackInactiveTiles": {
        "r": 0.0784313753247261,
        "g": 0.0784313753247261,
        "b": 0.0784313753247261,
        "a": 0.3137255012989044
    },
    "RackTop": {
        "r": 0.0,
        "g": 0.5186207294464111,
        "b": 1.0,
        "a": 0.7058823704719544
    },
    "RackBottomAdditive": {
        "r": 0.0,
        "g": 0.5176470875740051,
        "b": 1.0,
        "a": 0.3921568691730499
    },
    "BoardTop": {
        "r": 0.0,
        "g": 0.5559999942779541,
        "b": 1.0,
        "a": 1.0
    },
    "BoardBottomAdditive": {
        "r": 0.0,
        "g": 0.5568627715110779,
        "b": 1.0,
        "a": 0.5882353186607361
    },
    "PlayerInfoBox": {
        "r": 0.18382352590560914,
        "g": 0.6068679094314575,
        "b": 1.0,
        "a": 0.8970000147819519
    },
    "BoardFrame": {
        "r": 0.0,
        "g": 0.5568627715110779,
        "b": 1.0,
        "a": 1.0
    },
    "BoardFrameV2": {
        "r": 0.11759300529956818,
        "g": 0.2642137408256531,
        "b": 0.5514705777168274,
        "a": 0.902999997138977
    },
    "BoardGrid": {
        "r": 0.12089100480079651,
        "g": 0.30323824286460879,
        "b": 0.6323529481887817,
        "a": 1.0
    },
    "ChatButton": {
        "r": 0.0,
        "g": 0.523676872253418,
        "b": 1.0,
        "a": 1.0
    },
    "MoonSquare": {
        "r": 0.0,
        "g": 0.523676872253418,
        "b": 1.0,
        "a": 1.0
    },
    "RadialGrad": {
        "r": 0.0,
        "g": 0.523676872253418,
        "b": 1.0,
        "a": 0.625
    },
    "FanfareTint": {
        "r": 0.06406789273023606,
        "g": 0.25012102723121645,
        "b": 0.5808823108673096,
        "a": 1.0
    },
    "BaseLayersData": [
        {
            "LayerColor": {
                "r": 1.0,
                "g": 1.0,
                "b": 1.0,
                "a": 1.0
            },
            "LayerColorBasedOnIconColor": false,
            "LayerColorIfColor1": {
                "r": 0.0,
                "g": 0.0,
                "b": 0.0,
                "a": 0.0
            },
            "LayerColorIfColor2": {
                "r": 0.0,
                "g": 0.0,
                "b": 0.0,
                "a": 0.0
            },
            "LayerColorIfColor3": {
                "r": 0.0,
                "g": 0.0,
                "b": 0.0,
                "a": 0.0
            },
            "LayerColorIfColor4": {
                "r": 0.0,
                "g": 0.0,
                "b": 0.0,
                "a": 0.0
            },
            "LayerColorIfColor5": {
                "r": 0.0,
                "g": 0.0,
                "b": 0.0,
                "a": 0.0
            },
            "LayerColorIfColor6": {
                "r": 0.0,
                "g": 0.0,
                "b": 0.0,
                "a": 0.0
            },
            "LayerColorIfWind": {
                "r": 0.0,
                "g": 0.0,
                "b": 0.0,
                "a": 0.0
            },
            "RandomBaseRotation": false,
            "RandomBaseXMirror": false,
            "RandomBaseYMirror": false,
            "CopyBaseRotation": false,
            "CopyRotationFromLayer": 0,
            "CopyBaseXMirror": false,
            "CopyXMirrorFromLayer": 0,
            "CopyBaseYMirror": false,
            "CopyYMirrorFromLayer": 0,
            "DefaultLayerVariations": [],
            "LayerSpriteBasedOnShape": false,
            "Shape1Variations": [],
            "Shape2Variations": [],
            "Shape3Variations": [],
            "Shape4Variations": [],
            "Shape5Variations": [],
            "Shape6Variations": [],
            "ShapeWindVariations": [],
            "LayerSpriteBasedOnColor": true,
            "Color1Variations": [
                "base_red"
            ],
            "Color2Variations": [
                "base_yellow"
            ],
            "Color3Variations": [
                "base_navy"
            ],
            "Color4Variations": [
                "base_green"
            ],
            "Color5Variations": [
                "base_blue"
            ],
            "Color6Variations": [
                "base_magenta"
            ],
            "ColorWindVariations": [
                "base_wind"
            ]
        }
    ],
    "IconLayersData": []
}