{
    "_red": {
        "r": 1.0,
        "g": 1.0,
        "b": 1.0,
        "a": 1.0
    },
    "_yellow": {
        "r": 1.0,
        "g": 1.0,
        "b": 1.0,
        "a": 1.0
    },
    "_darkBlue": {
        "r": 1.0,
        "g": 1.0,
        "b": 1.0,
        "a": 1.0
    },
    "_green": {
        "r": 1.0,
        "g": 1.0,
        "b": 1.0,
        "a": 1.0
    },
    "_lightBlue": {
        "r": 1.0,
        "g": 1.0,
        "b": 1.0,
        "a": 1.0
    },
    "_magenta": {
        "r": 1.0,
        "g": 1.0,
        "b": 1.0,
        "a": 1.0
    },
    "_wind": {
        "r": 0.19869159162044526,
        "g": 0.3616998493671417,
        "b": 0.5514705777168274,
        "a": 0.9470000267028809
    },
    "_baseColor": {
        "r": 1.0,
        "g": 1.0,
        "b": 1.0,
        "a": 1.0
    },
    "_rackInactiveTiles": {
        "r": 0.0784313753247261,
        "g": 0.0784313753247261,
        "b": 0.0784313753247261,
        "a": 0.3137255012989044
    },
    "RackTop": {
        "r": 0.904411792755127,
        "g": 0.7229790687561035,
        "b": 0.3325043320655823,
        "a": 0.859000027179718
    },
    "RackBottomAdditive": {
        "r": 0.9333333969116211,
        "g": 0.687004804611206,
        "b": 0.1568627506494522,
        "a": 0.3921568691730499
    },
    "BoardTop": {
        "r": 0.0,
        "g": 1.0,
        "b": 0.7103447914123535,
        "a": 0.703000009059906
    },
    "BoardBottomAdditive": {
        "r": 0.9154837131500244,
        "g": 1.0,
        "b": 0.0,
        "a": 0.10300000011920929
    },
    "PlayerInfoBox": {
        "r": 1.0,
        "g": 0.7655172348022461,
        "b": 0.0,
        "a": 1.0
    },
    "BoardFrame": {
        "r": 0.7764706611633301,
        "g": 0.6078431606292725,
        "b": 0.2196078598499298,
        "a": 1.0
    },
    "BoardFrameV2": {
        "r": 0.8970588445663452,
        "g": 0.6676083207130432,
        "b": 0.25724485516548159,
        "a": 0.765999972820282
    },
    "BoardGrid": {
        "r": 0.9190669059753418,
        "g": 1.0,
        "b": 0.6911764740943909,
        "a": 1.0
    },
    "ChatButton": {
        "r": 1.0,
        "g": 0.8068965673446655,
        "b": 0.0,
        "a": 1.0
    },
    "MoonSquare": {
        "r": 1.0,
        "g": 0.6000000238418579,
        "b": 0.0,
        "a": 1.0
    },
    "RadialGrad": {
        "r": 1.0,
        "g": 0.9241379499435425,
        "b": 0.3630000054836273,
        "a": 0.07199999690055847
    },
    "FanfareTint": {
        "r": 1.0,
        "g": 1.0,
        "b": 1.0,
        "a": 1.0
    },
    "BaseLayersData": [
        {
            "LayerColor": {
                "r": 1.0,
                "g": 1.0,
                "b": 1.0,
                "a": 1.0
            },
            "LayerColorBasedOnIconColor": false,
            "LayerColorIfColor1": {
                "r": 0.0,
                "g": 0.0,
                "b": 0.0,
                "a": 0.0
            },
            "LayerColorIfColor2": {
                "r": 0.0,
                "g": 0.0,
                "b": 0.0,
                "a": 0.0
            },
            "LayerColorIfColor3": {
                "r": 0.0,
                "g": 0.0,
                "b": 0.0,
                "a": 0.0
            },
            "LayerColorIfColor4": {
                "r": 0.0,
                "g": 0.0,
                "b": 0.0,
                "a": 0.0
            },
            "LayerColorIfColor5": {
                "r": 0.0,
                "g": 0.0,
                "b": 0.0,
                "a": 0.0
            },
            "LayerColorIfColor6": {
                "r": 0.0,
                "g": 0.0,
                "b": 0.0,
                "a": 0.0
            },
            "LayerColorIfWind": {
                "r": 0.0,
                "g": 0.0,
                "b": 0.0,
                "a": 0.0
            },
            "RandomBaseRotation": false,
            "RandomBaseXMirror": false,
            "RandomBaseYMirror": false,
            "CopyBaseRotation": false,
            "CopyRotationFromLayer": 0,
            "CopyBaseXMirror": false,
            "CopyXMirrorFromLayer": 0,
            "CopyBaseYMirror": false,
            "CopyYMirrorFromLayer": 0,
            "DefaultLayerVariations": [],
            "LayerSpriteBasedOnShape": false,
            "Shape1Variations": [],
            "Shape2Variations": [],
            "Shape3Variations": [],
            "Shape4Variations": [],
            "Shape5Variations": [],
            "Shape6Variations": [],
            "ShapeWindVariations": [],
            "LayerSpriteBasedOnColor": true,
            "Color1Variations": [
                "BaseLayer0_Blue"
            ],
            "Color2Variations": [
                "BaseLayer0_Green"
            ],
            "Color3Variations": [
                "BaseLayer0_Red"
            ],
            "Color4Variations": [
                "BaseLayer0_Pink"
            ],
            "Color5Variations": [
                "BaseLayer0_Purple"
            ],
            "Color6Variations": [
                "BaseLayer0_Yellow"
            ],
            "ColorWindVariations": [
                "BaseLayer0_skyblue"
            ]
        }
    ],
    "IconLayersData": []
}