{
    "_red": {
        "r": 0.845588207244873,
        "g": 0.2547055780887604,
        "b": 0.03730534762144089,
        "a": 1.0
    },
    "_yellow": {
        "r": 0.9264705777168274,
        "g": 0.6003579497337341,
        "b": 0.0,
        "a": 1.0
    },
    "_darkBlue": {
        "r": 0.14273355901241303,
        "g": 0.33304521441459658,
        "b": 0.8088235259056091,
        "a": 1.0
    },
    "_green": {
        "r": 0.5159448981285095,
        "g": 0.7352941036224365,
        "b": 0.15679067373275758,
        "a": 1.0
    },
    "_lightBlue": {
        "r": 0.4117646813392639,
        "g": 0.750277578830719,
        "b": 1.0,
        "a": 1.0
    },
    "_magenta": {
        "r": 0.584980845451355,
        "g": 0.3266652226448059,
        "b": 0.779411792755127,
        "a": 1.0
    },
    "_wind": {
        "r": 0.24264705181121827,
        "g": 0.24264705181121827,
        "b": 0.24264705181121827,
        "a": 1.0
    },
    "_baseColor": {
        "r": 1.0,
        "g": 1.0,
        "b": 1.0,
        "a": 1.0
    },
    "_rackInactiveTiles": {
        "r": 0.0784313753247261,
        "g": 0.0784313753247261,
        "b": 0.0784313753247261,
        "a": 0.3137255012989044
    },
    "RackTop": {
        "r": 0.06267450004816055,
        "g": 0.27286431193351748,
        "b": 0.5137255191802979,
        "a": 0.902999997138977
    },
    "RackBottomAdditive": {
        "r": 0.062745101749897,
        "g": 0.27450981736183169,
        "b": 0.5137255191802979,
        "a": 0.3921568691730499
    },
    "BoardTop": {
        "r": 0.07169117033481598,
        "g": 0.15500617027282716,
        "b": 0.2867646813392639,
        "a": 1.0
    },
    "BoardBottomAdditive": {
        "r": 0.022210516035556794,
        "g": 0.421999990940094,
        "b": 0.11496172100305557,
        "a": 0.22200000286102296
    },
    "PlayerInfoBox": {
        "r": 0.10955721884965897,
        "g": 0.47931310534477236,
        "b": 0.8970000147819519,
        "a": 0.8339999914169312
    },
    "BoardFrame": {
        "r": 0.078000009059906,
        "g": 0.5109393000602722,
        "b": 1.0,
        "a": 0.7590000033378601
    },
    "BoardFrameV2": {
        "r": 0.08590200543403626,
        "g": 0.17311449348926545,
        "b": 0.27799999713897707,
        "a": 0.8899999856948853
    },
    "BoardGrid": {
        "r": 0.2723291516304016,
        "g": 0.47817760705947878,
        "b": 0.5073529481887817,
        "a": 1.0
    },
    "ChatButton": {
        "r": 0.10112974047660828,
        "g": 0.4424428641796112,
        "b": 0.828000009059906,
        "a": 1.0
    },
    "MoonSquare": {
        "r": 0.1012110710144043,
        "g": 0.3229954242706299,
        "b": 0.5735294222831726,
        "a": 0.5899999737739563
    },
    "RadialGrad": {
        "r": 1.0,
        "g": 0.9014853239059448,
        "b": 0.3602941036224365,
        "a": 0.1340000033378601
    },
    "FanfareTint": {
        "r": 0.23529411852359773,
        "g": 0.01568627543747425,
        "b": 0.6078431606292725,
        "a": 0.4470588266849518
    },
    "BaseLayersData": [
        {
            "LayerColor": {
                "r": 1.0,
                "g": 1.0,
                "b": 1.0,
                "a": 1.0
            },
            "LayerColorBasedOnIconColor": false,
            "LayerColorIfColor1": {
                "r": 0.0,
                "g": 0.0,
                "b": 0.0,
                "a": 0.0
            },
            "LayerColorIfColor2": {
                "r": 0.0,
                "g": 0.0,
                "b": 0.0,
                "a": 0.0
            },
            "LayerColorIfColor3": {
                "r": 0.0,
                "g": 0.0,
                "b": 0.0,
                "a": 0.0
            },
            "LayerColorIfColor4": {
                "r": 0.0,
                "g": 0.0,
                "b": 0.0,
                "a": 0.0
            },
            "LayerColorIfColor5": {
                "r": 0.0,
                "g": 0.0,
                "b": 0.0,
                "a": 0.0
            },
            "LayerColorIfColor6": {
                "r": 0.0,
                "g": 0.0,
                "b": 0.0,
                "a": 0.0
            },
            "LayerColorIfWind": {
                "r": 0.0,
                "g": 0.0,
                "b": 0.0,
                "a": 0.0
            },
            "RandomBaseRotation": true,
            "RandomBaseXMirror": true,
            "RandomBaseYMirror": true,
            "CopyBaseRotation": false,
            "CopyRotationFromLayer": 0,
            "CopyBaseXMirror": false,
            "CopyXMirrorFromLayer": 0,
            "CopyBaseYMirror": false,
            "CopyYMirrorFromLayer": 0,
            "DefaultLayerVariations": [
                "BaseLayer0_0",
                "BaseLayer0_1",
                "BaseLayer0_2",
                "BaseLayer0_3",
                "BaseLayer0_4"
            ],
            "LayerSpriteBasedOnShape": false,
            "Shape1Variations": [],
            "Shape2Variations": [],
            "Shape3Variations": [],
            "Shape4Variations": [],
            "Shape5Variations": [],
            "Shape6Variations": [],
            "ShapeWindVariations": [],
            "LayerSpriteBasedOnColor": false,
            "Color1Variations": [],
            "Color2Variations": [],
            "Color3Variations": [],
            "Color4Variations": [],
            "Color5Variations": [],
            "Color6Variations": [],
            "ColorWindVariations": []
        }
    ],
    "IconLayersData": []
}