{
    "_red": {
        "r": 1.0,
        "g": 1.0,
        "b": 1.0,
        "a": 1.0
    },
    "_yellow": {
        "r": 1.0,
        "g": 1.0,
        "b": 1.0,
        "a": 1.0
    },
    "_darkBlue": {
        "r": 1.0,
        "g": 1.0,
        "b": 1.0,
        "a": 1.0
    },
    "_green": {
        "r": 1.0,
        "g": 1.0,
        "b": 1.0,
        "a": 1.0
    },
    "_lightBlue": {
        "r": 1.0,
        "g": 1.0,
        "b": 1.0,
        "a": 1.0
    },
    "_magenta": {
        "r": 1.0,
        "g": 1.0,
        "b": 1.0,
        "a": 1.0
    },
    "_wind": {
        "r": 0.16176468133926392,
        "g": 0.08367137610912323,
        "b": 0.0,
        "a": 1.0
    },
    "_baseColor": {
        "r": 1.0,
        "g": 1.0,
        "b": 1.0,
        "a": 1.0
    },
    "_rackInactiveTiles": {
        "r": 1.0,
        "g": 1.0,
        "b": 1.0,
        "a": 1.0
    },
    "RackTop": {
        "r": 0.0,
        "g": 0.5186207294464111,
        "b": 1.0,
        "a": 0.7058823704719544
    },
    "RackBottomAdditive": {
        "r": 0.0,
        "g": 0.5176470875740051,
        "b": 1.0,
        "a": 0.3921568691730499
    },
    "BoardTop": {
        "r": 0.0,
        "g": 0.5559999942779541,
        "b": 1.0,
        "a": 1.0
    },
    "BoardBottomAdditive": {
        "r": 0.0,
        "g": 0.5568627715110779,
        "b": 1.0,
        "a": 0.5882353186607361
    },
    "PlayerInfoBox": {
        "r": 0.19215688109397889,
        "g": 0.5803921818733215,
        "b": 0.9411765336990356,
        "a": 1.0
    },
    "BoardFrame": {
        "r": 0.0,
        "g": 0.5568627715110779,
        "b": 1.0,
        "a": 1.0
    },
    "BoardFrameV2": {
        "r": 0.5367647409439087,
        "g": 0.8658215999603272,
        "b": 1.0,
        "a": 1.0
    },
    "BoardGrid": {
        "r": 1.0,
        "g": 1.0,
        "b": 1.0,
        "a": 1.0
    },
    "ChatButton": {
        "r": 0.0,
        "g": 0.523676872253418,
        "b": 1.0,
        "a": 1.0
    },
    "MoonSquare": {
        "r": 0.0,
        "g": 0.523676872253418,
        "b": 1.0,
        "a": 1.0
    },
    "RadialGrad": {
        "r": 0.0,
        "g": 0.523676872253418,
        "b": 1.0,
        "a": 0.625
    },
    "FanfareTint": {
        "r": 1.0,
        "g": 1.0,
        "b": 1.0,
        "a": 1.0
    },
    "BaseLayersData": [
        {
            "LayerColor": {
                "r": 1.0,
                "g": 1.0,
                "b": 1.0,
                "a": 1.0
            },
            "LayerColorBasedOnIconColor": false,
            "LayerColorIfColor1": {
                "r": 1.0,
                "g": 1.0,
                "b": 1.0,
                "a": 1.0
            },
            "LayerColorIfColor2": {
                "r": 0.0,
                "g": 0.0,
                "b": 0.0,
                "a": 0.0
            },
            "LayerColorIfColor3": {
                "r": 0.0,
                "g": 0.0,
                "b": 0.0,
                "a": 0.0
            },
            "LayerColorIfColor4": {
                "r": 0.0,
                "g": 0.0,
                "b": 0.0,
                "a": 0.0
            },
            "LayerColorIfColor5": {
                "r": 0.0,
                "g": 0.0,
                "b": 0.0,
                "a": 0.0
            },
            "LayerColorIfColor6": {
                "r": 0.0,
                "g": 0.0,
                "b": 0.0,
                "a": 0.0
            },
            "LayerColorIfWind": {
                "r": 0.0,
                "g": 0.0,
                "b": 0.0,
                "a": 0.0
            },
            "RandomBaseRotation": false,
            "RandomBaseXMirror": false,
            "RandomBaseYMirror": false,
            "CopyBaseRotation": false,
            "CopyRotationFromLayer": 0,
            "CopyBaseXMirror": false,
            "CopyXMirrorFromLayer": 0,
            "CopyBaseYMirror": false,
            "CopyYMirrorFromLayer": 0,
            "DefaultLayerVariations": [],
            "LayerSpriteBasedOnShape": false,
            "Shape1Variations": [],
            "Shape2Variations": [],
            "Shape3Variations": [],
            "Shape4Variations": [],
            "Shape5Variations": [],
            "Shape6Variations": [],
            "ShapeWindVariations": [],
            "LayerSpriteBasedOnColor": true,
            "Color1Variations": [
                "Red_"
            ],
            "Color2Variations": [
                "Yellow_"
            ],
            "Color3Variations": [
                "Blue_"
            ],
            "Color4Variations": [
                "Mint_"
            ],
            "Color5Variations": [
                "Choco_"
            ],
            "Color6Variations": [
                "Pink_"
            ],
            "ColorWindVariations": [
                "Base"
            ]
        }
    ],
    "IconLayersData": [
        {
            "Shape1IconScale": 0.8899999856948853,
            "Shape2IconScale": 0.9100000262260437,
            "Shape3IconScale": 0.8799999952316284,
            "Shape4IconScale": 0.949999988079071,
            "Shape5IconScale": 0.8899999856948853,
            "Shape6IconScale": 0.8799999952316284,
            "ShapeWindIconScale": 0.8299999833106995
        }
    ]
}