{
    "_red": {
        "r": 1.0,
        "g": 1.0,
        "b": 1.0,
        "a": 1.0
    },
    "_yellow": {
        "r": 1.0,
        "g": 1.0,
        "b": 1.0,
        "a": 1.0
    },
    "_darkBlue": {
        "r": 1.0,
        "g": 1.0,
        "b": 1.0,
        "a": 1.0
    },
    "_green": {
        "r": 1.0,
        "g": 1.0,
        "b": 1.0,
        "a": 1.0
    },
    "_lightBlue": {
        "r": 1.0,
        "g": 1.0,
        "b": 1.0,
        "a": 1.0
    },
    "_magenta": {
        "r": 1.0,
        "g": 1.0,
        "b": 1.0,
        "a": 1.0
    },
    "_wind": {
        "r": 1.0,
        "g": 1.0,
        "b": 1.0,
        "a": 1.0
    },
    "_baseColor": {
        "r": 1.0,
        "g": 1.0,
        "b": 1.0,
        "a": 1.0
    },
    "_rackInactiveTiles": {
        "r": 0.0784313753247261,
        "g": 0.0784313753247261,
        "b": 0.0784313753247261,
        "a": 0.3137255012989044
    },
    "RackTop": {
        "r": 0.5724139213562012,
        "g": 0.0,
        "b": 1.0,
        "a": 0.7279999852180481
    },
    "RackBottomAdditive": {
        "r": 1.0,
        "g": 0.6691176891326904,
        "b": 0.9224137663841248,
        "a": 0.3921568691730499
    },
    "BoardTop": {
        "r": 1.0,
        "g": 0.6029411554336548,
        "b": 0.9397565126419067,
        "a": 1.0
    },
    "BoardBottomAdditive": {
        "r": 0.9314401745796204,
        "g": 0.6176470518112183,
        "b": 1.0,
        "a": 0.5882353186607361
    },
    "PlayerInfoBox": {
        "r": 0.9699797034263611,
        "g": 0.45588237047195437,
        "b": 1.0,
        "a": 1.0
    },
    "BoardFrame": {
        "r": 1.0,
        "g": 0.3607843220233917,
        "b": 0.3607843220233917,
        "a": 1.0
    },
    "BoardFrameV2": {
        "r": 0.6146988272666931,
        "g": 0.3014705777168274,
        "b": 1.0,
        "a": 1.0
    },
    "BoardGrid": {
        "r": 1.0,
        "g": 1.0,
        "b": 1.0,
        "a": 1.0
    },
    "ChatButton": {
        "r": 0.0,
        "g": 0.523676872253418,
        "b": 1.0,
        "a": 1.0
    },
    "MoonSquare": {
        "r": 0.0,
        "g": 0.523676872253418,
        "b": 1.0,
        "a": 1.0
    },
    "RadialGrad": {
        "r": 0.0,
        "g": 0.523676872253418,
        "b": 1.0,
        "a": 0.625
    },
    "FanfareTint": {
        "r": 1.0,
        "g": 1.0,
        "b": 1.0,
        "a": 1.0
    },
    "BaseLayersData": [
        {
            "LayerColor": {
                "r": 1.0,
                "g": 1.0,
                "b": 1.0,
                "a": 1.0
            },
            "LayerColorBasedOnIconColor": false,
            "LayerColorIfColor1": {
                "r": 1.0,
                "g": 1.0,
                "b": 1.0,
                "a": 1.0
            },
            "LayerColorIfColor2": {
                "r": 1.0,
                "g": 1.0,
                "b": 1.0,
                "a": 1.0
            },
            "LayerColorIfColor3": {
                "r": 0.0,
                "g": 0.0,
                "b": 0.0,
                "a": 0.0
            },
            "LayerColorIfColor4": {
                "r": 0.0,
                "g": 0.0,
                "b": 0.0,
                "a": 0.0
            },
            "LayerColorIfColor5": {
                "r": 0.0,
                "g": 0.0,
                "b": 0.0,
                "a": 0.0
            },
            "LayerColorIfColor6": {
                "r": 0.0,
                "g": 0.0,
                "b": 0.0,
                "a": 0.0
            },
            "LayerColorIfWind": {
                "r": 0.3235294222831726,
                "g": 0.3235294222831726,
                "b": 0.3235294222831726,
                "a": 0.0
            },
            "RandomBaseRotation": false,
            "RandomBaseXMirror": false,
            "RandomBaseYMirror": false,
            "CopyBaseRotation": false,
            "CopyRotationFromLayer": 0,
            "CopyBaseXMirror": false,
            "CopyXMirrorFromLayer": 0,
            "CopyBaseYMirror": false,
            "CopyYMirrorFromLayer": 0,
            "DefaultLayerVariations": [],
            "LayerSpriteBasedOnShape": false,
            "Shape1Variations": [],
            "Shape2Variations": [],
            "Shape3Variations": [],
            "Shape4Variations": [],
            "Shape5Variations": [],
            "Shape6Variations": [],
            "ShapeWindVariations": [],
            "LayerSpriteBasedOnColor": true,
            "Color1Variations": [
                "Base_1"
            ],
            "Color2Variations": [
                "Base_2"
            ],
            "Color3Variations": [
                "Base_3"
            ],
            "Color4Variations": [
                "Base_4"
            ],
            "Color5Variations": [
                "Base_5"
            ],
            "Color6Variations": [
                "Base_6"
            ],
            "ColorWindVariations": [
                "Base_Wind"
            ]
        }
    ],
    "IconLayersData": [
        {
            "Shape1IconScale": 0.9430000185966492,
            "Shape2IconScale": 0.9559999704360962,
            "Shape3IconScale": 0.9129999876022339,
            "Shape4IconScale": 0.9169999957084656,
            "Shape5IconScale": 0.9340000152587891,
            "Shape6IconScale": 0.9129999876022339,
            "ShapeWindIconScale": 0.8740000128746033
        }
    ]
}