{
    "_red": {
        "r": 0.8980392217636108,
        "g": 0.2235294133424759,
        "b": 0.2980392277240753,
        "a": 1.0
    },
    "_yellow": {
        "r": 0.9960784316062927,
        "g": 0.8274509906768799,
        "b": 0.3176470696926117,
        "a": 1.0
    },
    "_darkBlue": {
        "r": 0.0,
        "g": 0.3803921639919281,
        "b": 0.6000000238418579,
        "a": 1.0
    },
    "_green": {
        "r": 0.30980393290519717,
        "g": 0.800000011920929,
        "b": 0.4627451002597809,
        "a": 1.0
    },
    "_lightBlue": {
        "r": 0.501960813999176,
        "g": 0.8274509906768799,
        "b": 0.9411764740943909,
        "a": 1.0
    },
    "_magenta": {
        "r": 0.5686274766921997,
        "g": 0.3921568691730499,
        "b": 0.6431372761726379,
        "a": 1.0
    },
    "_wind": {
        "r": 0.3137255012989044,
        "g": 0.3137255012989044,
        "b": 0.3137255012989044,
        "a": 1.0
    },
    "_baseColor": {
        "r": 1.0,
        "g": 1.0,
        "b": 1.0,
        "a": 1.0
    },
    "_rackInactiveTiles": {
        "r": 0.0784313753247261,
        "g": 0.0784313753247261,
        "b": 0.0784313753247261,
        "a": 0.3137255012989044
    },
    "RackTop": {
        "r": 0.720588207244873,
        "g": 0.6586877703666687,
        "b": 0.31260812282562258,
        "a": 0.6340000033378601
    },
    "RackBottomAdditive": {
        "r": 0.5960784554481506,
        "g": 0.364705890417099,
        "b": 0.2705882489681244,
        "a": 0.3921568691730499
    },
    "BoardTop": {
        "r": 0.19099999964237214,
        "g": 0.11128347367048264,
        "b": 0.05901900306344032,
        "a": 1.0
    },
    "BoardBottomAdditive": {
        "r": 0.5960784554481506,
        "g": 0.364705890417099,
        "b": 0.2705882489681244,
        "a": 0.1469999998807907
    },
    "PlayerInfoBox": {
        "r": 0.5960784554481506,
        "g": 0.364705890417099,
        "b": 0.2705882489681244,
        "a": 1.0
    },
    "BoardFrame": {
        "r": 0.5960784554481506,
        "g": 0.364705890417099,
        "b": 0.2705882489681244,
        "a": 1.0
    },
    "BoardFrameV2": {
        "r": 0.3529411554336548,
        "g": 0.23082353174686433,
        "b": 0.0,
        "a": 0.8529999852180481
    },
    "BoardGrid": {
        "r": 0.7941176295280457,
        "g": 0.6700064539909363,
        "b": 0.4028979241847992,
        "a": 0.7089999914169312
    },
    "ChatButton": {
        "r": 0.5960784554481506,
        "g": 0.364705890417099,
        "b": 0.2705882489681244,
        "a": 1.0
    },
    "MoonSquare": {
        "r": 0.2280000001192093,
        "g": 0.1394999921321869,
        "b": 0.10350000113248825,
        "a": 0.7590000033378601
    },
    "RadialGrad": {
        "r": 0.45588237047195437,
        "g": 0.2503191828727722,
        "b": 0.0636894553899765,
        "a": 0.621999979019165
    },
    "FanfareTint": {
        "r": 0.8823529481887817,
        "g": 0.239215686917305,
        "b": 0.09019608050584793,
        "a": 0.4588235318660736
    },
    "BaseLayersData": [],
    "IconLayersData": []
}