{
    "_red": {
        "r": 1.0,
        "g": 0.8450000286102295,
        "b": 0.0,
        "a": 1.0
    },
    "_yellow": {
        "r": 0.0,
        "g": 0.9779411554336548,
        "b": 0.8970080614089966,
        "a": 1.0
    },
    "_darkBlue": {
        "r": 0.7314047813415527,
        "g": 0.0,
        "b": 1.0,
        "a": 1.0
    },
    "_green": {
        "r": 0.9921569228172302,
        "g": 0.1882353127002716,
        "b": 0.3764706254005432,
        "a": 1.0
    },
    "_lightBlue": {
        "r": 0.22352942824363709,
        "g": 1.0,
        "b": 0.32156863808631899,
        "a": 1.0
    },
    "_magenta": {
        "r": 0.9779411554336548,
        "g": 0.5535715818405151,
        "b": 0.0,
        "a": 1.0
    },
    "_wind": {
        "r": 0.34558820724487307,
        "g": 0.10164358466863632,
        "b": 0.10164358466863632,
        "a": 1.0
    },
    "_baseColor": {
        "r": 1.0,
        "g": 1.0,
        "b": 1.0,
        "a": 1.0
    },
    "_rackInactiveTiles": {
        "r": 0.0784313753247261,
        "g": 0.0784313753247261,
        "b": 0.0784313753247261,
        "a": 0.3137255012989044
    },
    "RackTop": {
        "r": 0.8308823704719544,
        "g": 0.32990920543670657,
        "b": 0.35115253925323489,
        "a": 0.7720000147819519
    },
    "RackBottomAdditive": {
        "r": 0.8196078538894653,
        "g": 0.07950196415185929,
        "b": 0.23338554799556733,
        "a": 0.42800000309944155
    },
    "BoardTop": {
        "r": 0.1379757523536682,
        "g": 0.8529411554336548,
        "b": 0.7641868591308594,
        "a": 1.0
    },
    "BoardBottomAdditive": {
        "r": 0.0,
        "g": 0.47058820724487307,
        "b": 0.3342798948287964,
        "a": 0.8220000267028809
    },
    "PlayerInfoBox": {
        "r": 0.5372549295425415,
        "g": 1.0,
        "b": 0.8274510502815247,
        "a": 1.0
    },
    "BoardFrame": {
        "r": 1.0,
        "g": 0.5167464017868042,
        "b": 0.6878182291984558,
        "a": 0.8220000267028809
    },
    "BoardFrameV2": {
        "r": 0.8659999966621399,
        "g": 0.39749398827552798,
        "b": 0.46534648537635805,
        "a": 0.8235294222831726
    },
    "BoardGrid": {
        "r": 1.0,
        "g": 0.5090000033378601,
        "b": 0.6297861337661743,
        "a": 1.0
    },
    "ChatButton": {
        "r": 0.8196078538894653,
        "g": 0.42352941632270815,
        "b": 0.5058823823928833,
        "a": 1.0
    },
    "MoonSquare": {
        "r": 0.0,
        "g": 0.3920479416847229,
        "b": 0.42799997329711916,
        "a": 0.703000009059906
    },
    "RadialGrad": {
        "r": 0.0,
        "g": 0.546999990940094,
        "b": 0.2910040318965912,
        "a": 0.41600000858306887
    },
    "FanfareTint": {
        "r": 0.8588235378265381,
        "g": 0.05098039284348488,
        "b": 0.5686274766921997,
        "a": 0.4588235318660736
    },
    "BaseLayersData": [
        {
            "LayerColor": {
                "r": 1.0,
                "g": 1.0,
                "b": 1.0,
                "a": 1.0
            },
            "LayerColorBasedOnIconColor": false,
            "LayerColorIfColor1": {
                "r": 0.9960784912109375,
                "g": 0.9582129716873169,
                "b": 0.8058274984359741,
                "a": 0.8970000147819519
            },
            "LayerColorIfColor2": {
                "r": 0.7867922186851502,
                "g": 0.9725490808486939,
                "b": 0.9544265270233154,
                "a": 0.8970000147819519
            },
            "LayerColorIfColor3": {
                "r": 0.9242289662361145,
                "g": 0.7904039621353149,
                "b": 0.9843137860298157,
                "a": 0.8970000147819519
            },
            "LayerColorIfColor4": {
                "r": 0.9803922176361084,
                "g": 0.7872549295425415,
                "b": 0.8331006765365601,
                "a": 0.8970000147819519
            },
            "LayerColorIfColor5": {
                "r": 0.7967020273208618,
                "g": 0.9921569228172302,
                "b": 0.820328414440155,
                "a": 0.8970000147819519
            },
            "LayerColorIfColor6": {
                "r": 1.0,
                "g": 0.8965497612953186,
                "b": 0.7960000038146973,
                "a": 0.902999997138977
            },
            "LayerColorIfWind": {
                "r": 0.34117648005485537,
                "g": 0.10588236153125763,
                "b": 0.1098039299249649,
                "a": 1.0
            },
            "RandomBaseRotation": false,
            "RandomBaseXMirror": false,
            "RandomBaseYMirror": false,
            "CopyBaseRotation": false,
            "CopyRotationFromLayer": 0,
            "CopyBaseXMirror": false,
            "CopyXMirrorFromLayer": 0,
            "CopyBaseYMirror": false,
            "CopyYMirrorFromLayer": 0,
            "DefaultLayerVariations": [
                "BaseLayer0_0"
            ],
            "LayerSpriteBasedOnShape": false,
            "Shape1Variations": [],
            "Shape2Variations": [],
            "Shape3Variations": [],
            "Shape4Variations": [],
            "Shape5Variations": [],
            "Shape6Variations": [],
            "ShapeWindVariations": [],
            "LayerSpriteBasedOnColor": false,
            "Color1Variations": [],
            "Color2Variations": [],
            "Color3Variations": [],
            "Color4Variations": [],
            "Color5Variations": [],
            "Color6Variations": [],
            "ColorWindVariations": []
        },
        {
            "LayerColor": {
                "r": 1.0,
                "g": 0.9117646813392639,
                "b": 0.9427992105484009,
                "a": 1.0
            },
            "LayerColorBasedOnIconColor": false,
            "LayerColorIfColor1": {
                "r": 0.0,
                "g": 0.0,
                "b": 0.0,
                "a": 0.0
            },
            "LayerColorIfColor2": {
                "r": 0.0,
                "g": 0.0,
                "b": 0.0,
                "a": 0.0
            },
            "LayerColorIfColor3": {
                "r": 0.0,
                "g": 0.0,
                "b": 0.0,
                "a": 0.0
            },
            "LayerColorIfColor4": {
                "r": 0.0,
                "g": 0.0,
                "b": 0.0,
                "a": 0.0
            },
            "LayerColorIfColor5": {
                "r": 0.0,
                "g": 0.0,
                "b": 0.0,
                "a": 0.0
            },
            "LayerColorIfColor6": {
                "r": 0.0,
                "g": 0.0,
                "b": 0.0,
                "a": 0.0
            },
            "LayerColorIfWind": {
                "r": 0.0,
                "g": 0.0,
                "b": 0.0,
                "a": 0.0
            },
            "RandomBaseRotation": false,
            "RandomBaseXMirror": false,
            "RandomBaseYMirror": false,
            "CopyBaseRotation": false,
            "CopyRotationFromLayer": 0,
            "CopyBaseXMirror": false,
            "CopyXMirrorFromLayer": 0,
            "CopyBaseYMirror": false,
            "CopyYMirrorFromLayer": 0,
            "DefaultLayerVariations": [
                "BaseLayer1_0"
            ],
            "LayerSpriteBasedOnShape": false,
            "Shape1Variations": [],
            "Shape2Variations": [],
            "Shape3Variations": [],
            "Shape4Variations": [],
            "Shape5Variations": [],
            "Shape6Variations": [],
            "ShapeWindVariations": [],
            "LayerSpriteBasedOnColor": false,
            "Color1Variations": [],
            "Color2Variations": [],
            "Color3Variations": [],
            "Color4Variations": [],
            "Color5Variations": [],
            "Color6Variations": [],
            "ColorWindVariations": []
        },
        {
            "LayerColor": {
                "r": 0.0,
                "g": 0.04699999839067459,
                "b": 0.021717244759202005,
                "a": 0.24699999392032624
            },
            "LayerColorBasedOnIconColor": false,
            "LayerColorIfColor1": {
                "r": 0.0,
                "g": 0.0,
                "b": 0.0,
                "a": 0.0
            },
            "LayerColorIfColor2": {
                "r": 0.0,
                "g": 0.0,
                "b": 0.0,
                "a": 0.0
            },
            "LayerColorIfColor3": {
                "r": 0.0,
                "g": 0.0,
                "b": 0.0,
                "a": 0.0
            },
            "LayerColorIfColor4": {
                "r": 0.0,
                "g": 0.0,
                "b": 0.0,
                "a": 0.0
            },
            "LayerColorIfColor5": {
                "r": 0.0,
                "g": 0.0,
                "b": 0.0,
                "a": 0.0
            },
            "LayerColorIfColor6": {
                "r": 0.0,
                "g": 0.0,
                "b": 0.0,
                "a": 0.0
            },
            "LayerColorIfWind": {
                "r": 0.0,
                "g": 0.0,
                "b": 0.0,
                "a": 0.0
            },
            "RandomBaseRotation": false,
            "RandomBaseXMirror": false,
            "RandomBaseYMirror": false,
            "CopyBaseRotation": false,
            "CopyRotationFromLayer": 0,
            "CopyBaseXMirror": false,
            "CopyXMirrorFromLayer": 0,
            "CopyBaseYMirror": false,
            "CopyYMirrorFromLayer": 0,
            "DefaultLayerVariations": [
                "CI_Border"
            ],
            "LayerSpriteBasedOnShape": false,
            "Shape1Variations": [],
            "Shape2Variations": [],
            "Shape3Variations": [],
            "Shape4Variations": [],
            "Shape5Variations": [],
            "Shape6Variations": [],
            "ShapeWindVariations": [],
            "LayerSpriteBasedOnColor": false,
            "Color1Variations": [],
            "Color2Variations": [],
            "Color3Variations": [],
            "Color4Variations": [],
            "Color5Variations": [],
            "Color6Variations": [],
            "ColorWindVariations": []
        }
    ],
    "IconLayersData": []
}