{
    "_red": {
        "r": 0.8941176533699036,
        "g": 0.007843137718737126,
        "b": 0.0,
        "a": 1.0
    },
    "_yellow": {
        "r": 1.0,
        "g": 0.8549019694328308,
        "b": 0.0,
        "a": 1.0
    },
    "_darkBlue": {
        "r": 0.0,
        "g": 0.22745098173618318,
        "b": 0.7960784435272217,
        "a": 1.0
    },
    "_green": {
        "r": 0.5843137502670288,
        "g": 0.9411764740943909,
        "b": 0.0,
        "a": 1.0
    },
    "_lightBlue": {
        "r": 0.5764706134796143,
        "g": 0.8156862854957581,
        "b": 0.9921568632125855,
        "a": 1.0
    },
    "_magenta": {
        "r": 0.6235294342041016,
        "g": 0.25882354378700259,
        "b": 0.8980392217636108,
        "a": 1.0
    },
    "_wind": {
        "r": 0.3137255012989044,
        "g": 0.3137255012989044,
        "b": 0.3137255012989044,
        "a": 1.0
    },
    "_baseColor": {
        "r": 1.0,
        "g": 1.0,
        "b": 1.0,
        "a": 1.0
    },
    "_rackInactiveTiles": {
        "r": 0.0784313753247261,
        "g": 0.0784313753247261,
        "b": 0.0784313753247261,
        "a": 0.3137255012989044
    },
    "RackTop": {
        "r": 0.0,
        "g": 0.5186207294464111,
        "b": 1.0,
        "a": 0.7058823704719544
    },
    "RackBottomAdditive": {
        "r": 0.0,
        "g": 0.5176470875740051,
        "b": 1.0,
        "a": 0.3921568691730499
    },
    "BoardTop": {
        "r": 0.0,
        "g": 0.5559999942779541,
        "b": 1.0,
        "a": 1.0
    },
    "BoardBottomAdditive": {
        "r": 0.0,
        "g": 0.5568627715110779,
        "b": 1.0,
        "a": 0.5882353186607361
    },
    "PlayerInfoBox": {
        "r": 0.19215688109397889,
        "g": 0.5803921818733215,
        "b": 0.9411765336990356,
        "a": 1.0
    },
    "BoardFrame": {
        "r": 0.0,
        "g": 0.5568627715110779,
        "b": 1.0,
        "a": 1.0
    },
    "BoardFrameV2": {
        "r": 1.0,
        "g": 1.0,
        "b": 1.0,
        "a": 1.0
    },
    "BoardGrid": {
        "r": 1.0,
        "g": 1.0,
        "b": 1.0,
        "a": 1.0
    },
    "ChatButton": {
        "r": 0.0,
        "g": 0.523676872253418,
        "b": 1.0,
        "a": 1.0
    },
    "MoonSquare": {
        "r": 0.0,
        "g": 0.523676872253418,
        "b": 1.0,
        "a": 1.0
    },
    "RadialGrad": {
        "r": 0.0,
        "g": 0.523676872253418,
        "b": 1.0,
        "a": 0.625
    },
    "FanfareTint": {
        "r": 1.0,
        "g": 1.0,
        "b": 1.0,
        "a": 1.0
    },
    "BaseLayersData": [],
    "IconLayersData": []
}