{
    "_red": {
        "r": 0.8392156958580017,
        "g": 0.33725491166114809,
        "b": 0.0,
        "a": 1.0
    },
    "_yellow": {
        "r": 0.12156862765550614,
        "g": 0.43529412150382998,
        "b": 0.6274510025978088,
        "a": 1.0
    },
    "_darkBlue": {
        "r": 0.6000000238418579,
        "g": 0.1568627506494522,
        "b": 0.4000000059604645,
        "a": 1.0
    },
    "_green": {
        "r": 0.22745098173618318,
        "g": 0.0784313753247261,
        "b": 0.4588235318660736,
        "a": 1.0
    },
    "_lightBlue": {
        "r": 0.26942190527915957,
        "g": 0.4852941036224365,
        "b": 0.02497836761176586,
        "a": 1.0
    },
    "_magenta": {
        "r": 0.845588207244873,
        "g": 0.7872717380523682,
        "b": 0.0,
        "a": 1.0
    },
    "_wind": {
        "r": 0.3137255012989044,
        "g": 0.3137255012989044,
        "b": 0.3137255012989044,
        "a": 1.0
    },
    "_baseColor": {
        "r": 1.0,
        "g": 1.0,
        "b": 1.0,
        "a": 1.0
    },
    "_rackInactiveTiles": {
        "r": 0.0784313753247261,
        "g": 0.0784313753247261,
        "b": 0.0784313753247261,
        "a": 0.3137255012989044
    },
    "RackTop": {
        "r": 0.22435998916625977,
        "g": 0.4223339557647705,
        "b": 0.7900000214576721,
        "a": 0.7058823704719544
    },
    "RackBottomAdditive": {
        "r": 0.2235294133424759,
        "g": 0.42352941632270815,
        "b": 0.7882353067398071,
        "a": 0.3921568691730499
    },
    "BoardTop": {
        "r": 0.2235294133424759,
        "g": 0.42352941632270815,
        "b": 0.7882353067398071,
        "a": 1.0
    },
    "BoardBottomAdditive": {
        "r": 0.2235294133424759,
        "g": 0.42352941632270815,
        "b": 0.7882353067398071,
        "a": 0.5882353186607361
    },
    "PlayerInfoBox": {
        "r": 0.2235294133424759,
        "g": 0.42352941632270815,
        "b": 0.7882353067398071,
        "a": 1.0
    },
    "BoardFrame": {
        "r": 0.2235294133424759,
        "g": 0.42352941632270815,
        "b": 0.7882353067398071,
        "a": 1.0
    },
    "BoardFrameV2": {
        "r": 0.11007040739059448,
        "g": 0.08953288197517395,
        "b": 0.2647058963775635,
        "a": 1.0
    },
    "BoardGrid": {
        "r": 0.1645815521478653,
        "g": 0.10347700864076615,
        "b": 0.4090000092983246,
        "a": 0.8339999914169312
    },
    "ChatButton": {
        "r": 0.2235294133424759,
        "g": 0.42352941632270815,
        "b": 0.7882353067398071,
        "a": 1.0
    },
    "MoonSquare": {
        "r": 0.1278659850358963,
        "g": 0.18989257514476777,
        "b": 0.30299997329711916,
        "a": 0.5720000267028809
    },
    "RadialGrad": {
        "r": 0.2235294133424759,
        "g": 0.42352941632270815,
        "b": 0.7882353067398071,
        "a": 0.6235294342041016
    },
    "FanfareTint": {
        "r": 0.03921568766236305,
        "g": 0.24705882370471955,
        "b": 0.5411764979362488,
        "a": 0.45490196347236636
    },
    "BaseLayersData": [],
    "IconLayersData": []
}