{
    "_red": {
        "r": 0.0,
        "g": 0.7509076595306397,
        "b": 0.8823529481887817,
        "a": 1.0
    },
    "_yellow": {
        "r": 0.9926470518112183,
        "g": 0.34994328022003176,
        "b": 0.1605752408504486,
        "a": 1.0
    },
    "_darkBlue": {
        "r": 0.0,
        "g": 0.40784314274787905,
        "b": 0.21960784494876862,
        "a": 1.0
    },
    "_green": {
        "r": 0.9191176295280457,
        "g": 0.8385783433914185,
        "b": 0.18923011422157288,
        "a": 1.0
    },
    "_lightBlue": {
        "r": 0.9485294222831726,
        "g": 0.5692272782325745,
        "b": 0.048821356147527698,
        "a": 1.0
    },
    "_magenta": {
        "r": 0.545098066329956,
        "g": 0.772549033164978,
        "b": 0.24705882370471955,
        "a": 1.0
    },
    "_wind": {
        "r": 0.3137255012989044,
        "g": 0.3137255012989044,
        "b": 0.3137255012989044,
        "a": 1.0
    },
    "_baseColor": {
        "r": 1.0,
        "g": 1.0,
        "b": 1.0,
        "a": 1.0
    },
    "_rackInactiveTiles": {
        "r": 0.0784313753247261,
        "g": 0.0784313753247261,
        "b": 0.0784313753247261,
        "a": 0.3137255012989044
    },
    "RackTop": {
        "r": 0.3014705777168274,
        "g": 0.1955278217792511,
        "b": 0.08201773464679718,
        "a": 0.8029999732971191
    },
    "RackBottomAdditive": {
        "r": 0.3247550129890442,
        "g": 0.6029999852180481,
        "b": 0.13386599719524384,
        "a": 0.3840000033378601
    },
    "BoardTop": {
        "r": 0.6691176891326904,
        "g": 0.4568459093570709,
        "b": 0.0,
        "a": 1.0
    },
    "BoardBottomAdditive": {
        "r": 0.6909999847412109,
        "g": 0.3171689808368683,
        "b": 0.3171689808368683,
        "a": 0.0
    },
    "PlayerInfoBox": {
        "r": 0.239215686917305,
        "g": 0.5058823823928833,
        "b": 0.47058823704719546,
        "a": 1.0
    },
    "BoardFrame": {
        "r": 0.15814228355884553,
        "g": 0.5514705777168274,
        "b": 0.3561626374721527,
        "a": 1.0
    },
    "BoardFrameV2": {
        "r": 0.13467776775360108,
        "g": 0.3897058963775635,
        "b": 0.3052828013896942,
        "a": 1.0
    },
    "BoardGrid": {
        "r": 0.23520463705062867,
        "g": 0.36764705181121828,
        "b": 0.10813147574663162,
        "a": 1.0
    },
    "ChatButton": {
        "r": 0.239215686917305,
        "g": 0.5058823823928833,
        "b": 0.47058823704719546,
        "a": 1.0
    },
    "MoonSquare": {
        "r": 0.5073529481887817,
        "g": 0.31140974164009097,
        "b": 0.06341911852359772,
        "a": 0.7149999737739563
    },
    "RadialGrad": {
        "r": 0.7233623266220093,
        "g": 0.7352941036224365,
        "b": 0.6812283396720886,
        "a": 0.6235294342041016
    },
    "FanfareTint": {
        "r": 0.7607843279838562,
        "g": 0.30588236451148989,
        "b": 0.003921568859368563,
        "a": 0.43529412150382998
    },
    "BaseLayersData": [
        {
            "LayerColor": {
                "r": 0.976850152015686,
                "g": 0.9779411554336548,
                "b": 0.898842990398407,
                "a": 1.0
            },
            "LayerColorBasedOnIconColor": false,
            "LayerColorIfColor1": {
                "r": 0.0,
                "g": 0.0,
                "b": 0.0,
                "a": 0.0
            },
            "LayerColorIfColor2": {
                "r": 0.0,
                "g": 0.0,
                "b": 0.0,
                "a": 0.0
            },
            "LayerColorIfColor3": {
                "r": 0.0,
                "g": 0.0,
                "b": 0.0,
                "a": 0.0
            },
            "LayerColorIfColor4": {
                "r": 0.0,
                "g": 0.0,
                "b": 0.0,
                "a": 0.0
            },
            "LayerColorIfColor5": {
                "r": 0.0,
                "g": 0.0,
                "b": 0.0,
                "a": 0.0
            },
            "LayerColorIfColor6": {
                "r": 0.0,
                "g": 0.0,
                "b": 0.0,
                "a": 0.0
            },
            "LayerColorIfWind": {
                "r": 0.0,
                "g": 0.0,
                "b": 0.0,
                "a": 0.0
            },
            "RandomBaseRotation": true,
            "RandomBaseXMirror": true,
            "RandomBaseYMirror": true,
            "CopyBaseRotation": false,
            "CopyRotationFromLayer": 0,
            "CopyBaseXMirror": false,
            "CopyXMirrorFromLayer": 0,
            "CopyBaseYMirror": false,
            "CopyYMirrorFromLayer": 0,
            "DefaultLayerVariations": [
                "BaseLayer0_0",
                "BaseLayer0_1",
                "BaseLayer0_2",
                "BaseLayer0_3",
                "BaseLayer0_4"
            ],
            "LayerSpriteBasedOnShape": false,
            "Shape1Variations": [],
            "Shape2Variations": [],
            "Shape3Variations": [],
            "Shape4Variations": [],
            "Shape5Variations": [],
            "Shape6Variations": [],
            "ShapeWindVariations": [],
            "LayerSpriteBasedOnColor": false,
            "Color1Variations": [],
            "Color2Variations": [],
            "Color3Variations": [],
            "Color4Variations": [],
            "Color5Variations": [],
            "Color6Variations": [],
            "ColorWindVariations": []
        }
    ],
    "IconLayersData": []
}