{
    "_red": {
        "r": 1.0,
        "g": 0.47058820724487307,
        "b": 0.8539555668830872,
        "a": 1.0
    },
    "_yellow": {
        "r": 1.0,
        "g": 0.9729999899864197,
        "b": 0.4264705777168274,
        "a": 1.0
    },
    "_darkBlue": {
        "r": 0.25,
        "g": 0.4642859697341919,
        "b": 1.0,
        "a": 1.0
    },
    "_green": {
        "r": 0.5097949504852295,
        "g": 0.7352941036224365,
        "b": 0.14057093858718873,
        "a": 1.0
    },
    "_lightBlue": {
        "r": 0.5220588445663452,
        "g": 0.7971005439758301,
        "b": 1.0,
        "a": 1.0
    },
    "_magenta": {
        "r": 0.49657168984413149,
        "g": 0.31617647409439089,
        "b": 0.6323529481887817,
        "a": 1.0
    },
    "_wind": {
        "r": 0.3137255012989044,
        "g": 0.3137255012989044,
        "b": 0.3137255012989044,
        "a": 1.0
    },
    "_baseColor": {
        "r": 1.0,
        "g": 1.0,
        "b": 1.0,
        "a": 1.0
    },
    "_rackInactiveTiles": {
        "r": 0.0784313753247261,
        "g": 0.0784313753247261,
        "b": 0.0784313753247261,
        "a": 0.3137255012989044
    },
    "RackTop": {
        "r": 0.3764705955982208,
        "g": 0.7254902124404907,
        "b": 1.0,
        "a": 0.902999997138977
    },
    "RackBottomAdditive": {
        "r": 0.3764705955982208,
        "g": 0.7254902124404907,
        "b": 1.0,
        "a": 0.3921568691730499
    },
    "BoardTop": {
        "r": 0.17009083926677705,
        "g": 0.570196807384491,
        "b": 0.8897058963775635,
        "a": 1.0
    },
    "BoardBottomAdditive": {
        "r": 0.265999972820282,
        "g": 0.6768551468849182,
        "b": 1.0,
        "a": 0.42800000309944155
    },
    "PlayerInfoBox": {
        "r": 0.3764705955982208,
        "g": 0.7254902124404907,
        "b": 1.0,
        "a": 1.0
    },
    "BoardFrame": {
        "r": 1.0,
        "g": 0.9832636117935181,
        "b": 0.6610878705978394,
        "a": 0.8970000147819519
    },
    "BoardFrameV2": {
        "r": 0.8676470518112183,
        "g": 0.8254087567329407,
        "b": 0.25519028306007388,
        "a": 1.0
    },
    "BoardGrid": {
        "r": 0.047334007918834689,
        "g": 0.20334425568580628,
        "b": 0.32200002670288088,
        "a": 0.7590000033378601
    },
    "ChatButton": {
        "r": 0.3764706254005432,
        "g": 0.7254902124404907,
        "b": 1.0,
        "a": 1.0
    },
    "MoonSquare": {
        "r": 0.05774223431944847,
        "g": 0.3639279007911682,
        "b": 0.654411792755127,
        "a": 0.8090000152587891
    },
    "RadialGrad": {
        "r": 0.652999997138977,
        "g": 0.26250600814819338,
        "b": 0.0,
        "a": 0.4659999907016754
    },
    "FanfareTint": {
        "r": 0.05098039284348488,
        "g": 0.14901961386203767,
        "b": 0.6980392336845398,
        "a": 0.4156862795352936
    },
    "BaseLayersData": [],
    "IconLayersData": []
}