{
    "_red": {
        "r": 0.5659795999526978,
        "g": 0.6911764740943909,
        "b": 0.21345154941082,
        "a": 1.0
    },
    "_yellow": {
        "r": 0.8897058963775635,
        "g": 0.0327097550034523,
        "b": 0.11305314302444458,
        "a": 1.0
    },
    "_darkBlue": {
        "r": 0.05147058516740799,
        "g": 0.875,
        "b": 0.6573092937469482,
        "a": 1.0
    },
    "_green": {
        "r": 0.625871479511261,
        "g": 0.29098185896873476,
        "b": 0.8602941036224365,
        "a": 1.0
    },
    "_lightBlue": {
        "r": 0.9558823704719544,
        "g": 0.5130839347839356,
        "b": 0.8092226386070252,
        "a": 1.0
    },
    "_magenta": {
        "r": 0.9647058844566345,
        "g": 0.572549045085907,
        "b": 0.11764705926179886,
        "a": 1.0
    },
    "_wind": {
        "r": 0.49264705181121828,
        "g": 0.2173442840576172,
        "b": 0.2173442840576172,
        "a": 1.0
    },
    "_baseColor": {
        "r": 1.0,
        "g": 1.0,
        "b": 1.0,
        "a": 1.0
    },
    "_rackInactiveTiles": {
        "r": 0.0784313753247261,
        "g": 0.0784313753247261,
        "b": 0.0784313753247261,
        "a": 0.3137255012989044
    },
    "RackTop": {
        "r": 0.5372549295425415,
        "g": 0.42352941632270815,
        "b": 0.30980393290519717,
        "a": 0.902999997138977
    },
    "RackBottomAdditive": {
        "r": 0.5372549295425415,
        "g": 0.42352941632270815,
        "b": 0.30980393290519717,
        "a": 0.3921568691730499
    },
    "BoardTop": {
        "r": 0.640999972820282,
        "g": 0.4411587417125702,
        "b": 0.14139702916145326,
        "a": 1.0
    },
    "BoardBottomAdditive": {
        "r": 0.0,
        "g": 0.08743802458047867,
        "b": 0.7409999966621399,
        "a": 0.6970000267028809
    },
    "PlayerInfoBox": {
        "r": 1.0,
        "g": 0.6847586035728455,
        "b": 0.34700000286102297,
        "a": 1.0
    },
    "BoardFrame": {
        "r": 1.0,
        "g": 0.8868275880813599,
        "b": 0.453000009059906,
        "a": 0.859000027179718
    },
    "BoardFrameV2": {
        "r": 1.0,
        "g": 0.886274516582489,
        "b": 0.45490196347236636,
        "a": 0.8588235378265381
    },
    "BoardGrid": {
        "r": 0.8410000205039978,
        "g": 0.7539801001548767,
        "b": 0.4659140408039093,
        "a": 0.9340000152587891
    },
    "ChatButton": {
        "r": 0.5372549295425415,
        "g": 0.42352941632270815,
        "b": 0.30980393290519717,
        "a": 1.0
    },
    "MoonSquare": {
        "r": 0.40299999713897707,
        "g": 0.26959308981895449,
        "b": 0.10074997693300247,
        "a": 0.578000009059906
    },
    "RadialGrad": {
        "r": 0.3970000147819519,
        "g": 0.24329590797424317,
        "b": 0.14252302050590516,
        "a": 0.527999997138977
    },
    "FanfareTint": {
        "r": 0.4156862795352936,
        "g": 0.11372549086809159,
        "b": 0.0,
        "a": 0.3607843220233917
    },
    "BaseLayersData": [
        {
            "LayerColor": {
                "r": 1.0,
                "g": 0.977647066116333,
                "b": 0.8823529481887817,
                "a": 1.0
            },
            "LayerColorBasedOnIconColor": false,
            "LayerColorIfColor1": {
                "r": 0.0,
                "g": 0.0,
                "b": 0.0,
                "a": 0.0
            },
            "LayerColorIfColor2": {
                "r": 0.0,
                "g": 0.0,
                "b": 0.0,
                "a": 0.0
            },
            "LayerColorIfColor3": {
                "r": 0.0,
                "g": 0.0,
                "b": 0.0,
                "a": 0.0
            },
            "LayerColorIfColor4": {
                "r": 0.0,
                "g": 0.0,
                "b": 0.0,
                "a": 0.0
            },
            "LayerColorIfColor5": {
                "r": 0.0,
                "g": 0.0,
                "b": 0.0,
                "a": 0.0
            },
            "LayerColorIfColor6": {
                "r": 0.0,
                "g": 0.0,
                "b": 0.0,
                "a": 0.0
            },
            "LayerColorIfWind": {
                "r": 0.0,
                "g": 0.0,
                "b": 0.0,
                "a": 0.0
            },
            "RandomBaseRotation": true,
            "RandomBaseXMirror": true,
            "RandomBaseYMirror": true,
            "CopyBaseRotation": false,
            "CopyRotationFromLayer": 0,
            "CopyBaseXMirror": false,
            "CopyXMirrorFromLayer": 0,
            "CopyBaseYMirror": false,
            "CopyYMirrorFromLayer": 0,
            "DefaultLayerVariations": [
                "BaseLayer_0_0",
                "BaseLayer_0_1",
                "BaseLayer_0_2",
                "BaseLayer_0_3"
            ],
            "LayerSpriteBasedOnShape": false,
            "Shape1Variations": [],
            "Shape2Variations": [],
            "Shape3Variations": [],
            "Shape4Variations": [],
            "Shape5Variations": [],
            "Shape6Variations": [],
            "ShapeWindVariations": [],
            "LayerSpriteBasedOnColor": false,
            "Color1Variations": [],
            "Color2Variations": [],
            "Color3Variations": [],
            "Color4Variations": [],
            "Color5Variations": [],
            "Color6Variations": [],
            "ColorWindVariations": []
        },
        {
            "LayerColor": {
                "r": 0.6970000267028809,
                "g": 0.14218801259994508,
                "b": 0.0,
                "a": 0.2529999911785126
            },
            "LayerColorBasedOnIconColor": false,
            "LayerColorIfColor1": {
                "r": 0.7568628191947937,
                "g": 0.8509804606437683,
                "b": 0.35686275362968447,
                "a": 0.5659999847412109
            },
            "LayerColorIfColor2": {
                "r": 0.8784314393997192,
                "g": 0.06666667014360428,
                "b": 0.15294118225574494,
                "a": 0.38999998569488528
            },
            "LayerColorIfColor3": {
                "r": 0.16078431904315949,
                "g": 0.8705883026123047,
                "b": 0.6627451181411743,
                "a": 0.5339999794960022
            },
            "LayerColorIfColor4": {
                "r": 0.6235294342041016,
                "g": 0.3137255012989044,
                "b": 0.847058892250061,
                "a": 0.546999990940094
            },
            "LayerColorIfColor5": {
                "r": 0.9490196704864502,
                "g": 0.5215686559677124,
                "b": 0.803921639919281,
                "a": 0.5339999794960022
            },
            "LayerColorIfColor6": {
                "r": 0.9568628072738648,
                "g": 0.5686274766921997,
                "b": 0.19215688109397889,
                "a": 0.546999990940094
            },
            "LayerColorIfWind": {
                "r": 0.3137255012989044,
                "g": 0.3137255012989044,
                "b": 0.3137255012989044,
                "a": 0.30300000309944155
            },
            "RandomBaseRotation": true,
            "RandomBaseXMirror": true,
            "RandomBaseYMirror": true,
            "CopyBaseRotation": false,
            "CopyRotationFromLayer": 0,
            "CopyBaseXMirror": false,
            "CopyXMirrorFromLayer": 0,
            "CopyBaseYMirror": false,
            "CopyYMirrorFromLayer": 0,
            "DefaultLayerVariations": [
                "BaseLayer_1_0"
            ],
            "LayerSpriteBasedOnShape": false,
            "Shape1Variations": [],
            "Shape2Variations": [],
            "Shape3Variations": [],
            "Shape4Variations": [],
            "Shape5Variations": [],
            "Shape6Variations": [],
            "ShapeWindVariations": [],
            "LayerSpriteBasedOnColor": false,
            "Color1Variations": [],
            "Color2Variations": [],
            "Color3Variations": [],
            "Color4Variations": [],
            "Color5Variations": [],
            "Color6Variations": [],
            "ColorWindVariations": []
        },
        {
            "LayerColor": {
                "r": 0.9411764740943909,
                "g": 0.901383101940155,
                "b": 0.6435986161231995,
                "a": 1.0
            },
            "LayerColorBasedOnIconColor": false,
            "LayerColorIfColor1": {
                "r": 0.0,
                "g": 0.0,
                "b": 0.0,
                "a": 0.0
            },
            "LayerColorIfColor2": {
                "r": 0.0,
                "g": 0.0,
                "b": 0.0,
                "a": 0.0
            },
            "LayerColorIfColor3": {
                "r": 0.0,
                "g": 0.0,
                "b": 0.0,
                "a": 0.0
            },
            "LayerColorIfColor4": {
                "r": 0.0,
                "g": 0.0,
                "b": 0.0,
                "a": 0.0
            },
            "LayerColorIfColor5": {
                "r": 0.0,
                "g": 0.0,
                "b": 0.0,
                "a": 0.0
            },
            "LayerColorIfColor6": {
                "r": 0.0,
                "g": 0.0,
                "b": 0.0,
                "a": 0.0
            },
            "LayerColorIfWind": {
                "r": 0.0,
                "g": 0.0,
                "b": 0.0,
                "a": 0.0
            },
            "RandomBaseRotation": true,
            "RandomBaseXMirror": true,
            "RandomBaseYMirror": true,
            "CopyBaseRotation": false,
            "CopyRotationFromLayer": 0,
            "CopyBaseXMirror": false,
            "CopyXMirrorFromLayer": 0,
            "CopyBaseYMirror": false,
            "CopyYMirrorFromLayer": 0,
            "DefaultLayerVariations": [
                "BaseLayer_2_0",
                "BaseLayer_2_1",
                "BaseLayer_2_2",
                "BaseLayer_2_3"
            ],
            "LayerSpriteBasedOnShape": false,
            "Shape1Variations": [],
            "Shape2Variations": [],
            "Shape3Variations": [],
            "Shape4Variations": [],
            "Shape5Variations": [],
            "Shape6Variations": [],
            "ShapeWindVariations": [],
            "LayerSpriteBasedOnColor": false,
            "Color1Variations": [],
            "Color2Variations": [],
            "Color3Variations": [],
            "Color4Variations": [],
            "Color5Variations": [],
            "Color6Variations": [],
            "ColorWindVariations": []
        }
    ],
    "IconLayersData": []
}